<?xml version="1.0" encoding="utf-8"?>
<!-- Generator: Adobe Illustrator 22.1.0, SVG Export Plug-In . SVG Version: 6.00 Build 0)  -->
<svg version="1.1" id="Lager_1" xmlns="http://www.w3.org/2000/svg" xmlns:xlink="http://www.w3.org/1999/xlink" x="0px" y="0px" viewBox="0 0 50 28.1" style="enable-background:new 0 0 50 28.1;" xml:space="preserve">
<title>Atoms / Icons / Arrow_right</title>
<desc>Created with Sketch.</desc>
<g id="Atoms-_x2F_-Icons-_x2F_-Arrow_x5F_right">
	<g id="Icon">
		<polygon fill="#FFF" id="path-1_1_" points="28.2,0.3 28.2,13 0.5,13 0.5,18 33.2,18 33.2,10 40.9,15.5 29.3,23.8 32.2,27.8 49.5,15.5 		"/>
	</g>
</g>
</svg>
